digraph Tree {
node [shape=box] ;
0 [label="Dependents_No <= 0.5\ngini = 0.391\nsamples = 3198\nvalue = [3663, 1328]\nclass = C"] ;
1 [label="PaymentMethod_Electronic check <= 0.5\ngini = 0.274\nsamples = 935\nvalue = [1188, 233]\nclass = C"] ;
0 -> 1 [labeldistance=2.5, labelangle=45, headlabel="True"] ;
2 [label="PhoneService_Yes <= 0.5\ngini = 0.211\nsamples = 729\nvalue = [994, 135]\nclass = C"] ;
1 -> 2 ;
3 [label="PaperlessBilling_No <= 0.5\ngini = 0.113\nsamples = 65\nvalue = [94, 6]\nclass = C"] ;
2 -> 3 ;
4 [label="DeviceProtection_Yes <= 0.5\ngini = 0.127\nsamples = 29\nvalue = [41, 3]\nclass = C"] ;
3 -> 4 ;
5 [label="OnlineSecurity_No <= 0.5\ngini = 0.091\nsamples = 12\nvalue = [20, 1]\nclass = C"] ;
4 -> 5 ;
6 [label="gini = 0.0\nsamples = 4\nvalue = [8, 0]\nclass = C"] ;
5 -> 6 ;
7 [label="Gender_Female <= 0.5\ngini = 0.142\nsamples = 8\nvalue = [12, 1]\nclass = C"] ;
5 -> 7 ;
8 [label="gini = 0.0\nsamples = 3\nvalue = [3, 0]\nclass = C"] ;
7 -> 8 ;
9 [label="SeniorCitizen_No <= 0.5\ngini = 0.18\nsamples = 5\nvalue = [9, 1]\nclass = C"] ;
7 -> 9 ;
10 [label="gini = 0.0\nsamples = 1\nvalue = [4, 0]\nclass = C"] ;
9 -> 10 ;
11 [label="gini = 0.278\nsamples = 4\nvalue = [5, 1]\nclass = C"] ;
9 -> 11 ;
12 [label="Partner_No <= 0.5\ngini = 0.159\nsamples = 17\nvalue = [21, 2]\nclass = C"] ;
4 -> 12 ;
13 [label="Contract_Month-to-month <= 0.5\ngini = 0.18\nsamples = 14\nvalue = [18, 2]\nclass = C"] ;
12 -> 13 ;
14 [label="gini = 0.0\nsamples = 11\nvalue = [16, 0]\nclass = C"] ;
13 -> 14 ;
15 [label="gini = 0.5\nsamples = 3\nvalue = [2, 2]\nclass = C"] ;
13 -> 15 ;
16 [label="gini = 0.0\nsamples = 3\nvalue = [3, 0]\nclass = C"] ;
12 -> 16 ;
17 [label="Tenure <= 32.0\ngini = 0.101\nsamples = 36\nvalue = [53, 3]\nclass = C"] ;
3 -> 17 ;
18 [label="OnlineBackup_No <= 0.5\ngini = 0.191\nsamples = 18\nvalue = [25, 3]\nclass = C"] ;
17 -> 18 ;
19 [label="gini = 0.0\nsamples = 7\nvalue = [10, 0]\nclass = C"] ;
18 -> 19 ;
20 [label="PaymentMethod_Credit card (automatic) <= 0.5\ngini = 0.278\nsamples = 11\nvalue = [15, 3]\nclass = C"] ;
18 -> 20 ;
21 [label="DeviceProtection_No <= 0.5\ngini = 0.198\nsamples = 6\nvalue = [8, 1]\nclass = C"] ;
20 -> 21 ;
22 [label="gini = 0.0\nsamples = 1\nvalue = [1, 0]\nclass = C"] ;
21 -> 22 ;
23 [label="OnlineSecurity_No <= 0.5\ngini = 0.219\nsamples = 5\nvalue = [7, 1]\nclass = C"] ;
21 -> 23 ;
24 [label="gini = 0.444\nsamples = 2\nvalue = [2, 1]\nclass = C"] ;
23 -> 24 ;
25 [label="gini = 0.0\nsamples = 3\nvalue = [5, 0]\nclass = C"] ;
23 -> 25 ;
26 [label="StreamingMovies_No <= 0.5\ngini = 0.346\nsamples = 5\nvalue = [7, 2]\nclass = C"] ;
20 -> 26 ;
27 [label="gini = 0.375\nsamples = 2\nvalue = [3, 1]\nclass = C"] ;
26 -> 27 ;
28 [label="gini = 0.32\nsamples = 3\nvalue = [4, 1]\nclass = C"] ;
26 -> 28 ;
29 [label="gini = 0.0\nsamples = 18\nvalue = [28, 0]\nclass = C"] ;
17 -> 29 ;
30 [label="TechSupport_No <= 0.5\ngini = 0.219\nsamples = 664\nvalue = [900, 129]\nclass = C"] ;
2 -> 30 ;
31 [label="DeviceProtection_Yes <= 0.5\ngini = 0.11\nsamples = 483\nvalue = [707, 44]\nclass = C"] ;
30 -> 31 ;
32 [label="TechSupport_Yes <= 0.5\ngini = 0.081\nsamples = 348\nvalue = [519, 23]\nclass = C"] ;
31 -> 32 ;
33 [label="Contract_Two year <= 0.5\ngini = 0.052\nsamples = 280\nvalue = [433, 12]\nclass = C"] ;
32 -> 33 ;
34 [label="Gender_Male <= 0.5\ngini = 0.108\nsamples = 120\nvalue = [181, 11]\nclass = C"] ;
33 -> 34 ;
35 [label="Tenure <= 19.0\ngini = 0.105\nsamples = 53\nvalue = [85, 5]\nclass = C"] ;
34 -> 35 ;
36 [label="MultipleLines_Yes <= 0.5\ngini = 0.177\nsamples = 29\nvalue = [46, 5]\nclass = C"] ;
35 -> 36 ;
37 [label="gini = 0.19\nsamples = 27\nvalue = [42, 5]\nclass = C"] ;
36 -> 37 ;
38 [label="gini = 0.0\nsamples = 2\nvalue = [4, 0]\nclass = C"] ;
36 -> 38 ;
39 [label="gini = 0.0\nsamples = 24\nvalue = [39, 0]\nclass = C"] ;
35 -> 39 ;
40 [label="Tenure <= 5.5\ngini = 0.111\nsamples = 67\nvalue = [96, 6]\nclass = C"] ;
34 -> 40 ;
41 [label="TotalCharges <= 110.525\ngini = 0.32\nsamples = 20\nvalue = [24, 6]\nclass = C"] ;
40 -> 41 ;
42 [label="gini = 0.198\nsamples = 19\nvalue = [24, 3]\nclass = C"] ;
41 -> 42 ;
43 [label="gini = 0.0\nsamples = 1\nvalue = [0, 3]\nclass = h"] ;
41 -> 43 ;
44 [label="gini = 0.0\nsamples = 47\nvalue = [72, 0]\nclass = C"] ;
40 -> 44 ;
45 [label="PaymentMethod_Credit card (automatic) <= 0.5\ngini = 0.008\nsamples = 160\nvalue = [252, 1]\nclass = C"] ;
33 -> 45 ;
46 [label="PaymentMethod_Bank transfer (automatic) <= 0.5\ngini = 0.011\nsamples = 114\nvalue = [178, 1]\nclass = C"] ;
45 -> 46 ;
47 [label="Gender_Male <= 0.5\ngini = 0.018\nsamples = 70\nvalue = [110, 1]\nclass = C"] ;
46 -> 47 ;
48 [label="gini = 0.03\nsamples = 37\nvalue = [64, 1]\nclass = C"] ;
47 -> 48 ;
49 [label="gini = 0.0\nsamples = 33\nvalue = [46, 0]\nclass = C"] ;
47 -> 49 ;
50 [label="gini = 0.0\nsamples = 44\nvalue = [68, 0]\nclass = C"] ;
46 -> 50 ;
51 [label="gini = 0.0\nsamples = 46\nvalue = [74, 0]\nclass = C"] ;
45 -> 51 ;
52 [label="OnlineBackup_No <= 0.5\ngini = 0.201\nsamples = 68\nvalue = [86, 11]\nclass = C"] ;
32 -> 52 ;
53 [label="Partner_No <= 0.5\ngini = 0.202\nsamples = 47\nvalue = [62, 8]\nclass = C"] ;
52 -> 53 ;
54 [label="Contract_One year <= 0.5\ngini = 0.225\nsamples = 41\nvalue = [54, 8]\nclass = C"] ;
53 -> 54 ;
55 [label="Gender_Male <= 0.5\ngini = 0.045\nsamples = 29\nvalue = [42, 1]\nclass = C"] ;
54 -> 55 ;
56 [label="gini = 0.1\nsamples = 13\nvalue = [18, 1]\nclass = C"] ;
55 -> 56 ;
57 [label="gini = 0.0\nsamples = 16\nvalue = [24, 0]\nclass = C"] ;
55 -> 57 ;
58 [label="StreamingTV_No <= 0.5\ngini = 0.465\nsamples = 12\nvalue = [12, 7]\nclass = C"] ;
54 -> 58 ;
59 [label="gini = 0.469\nsamples = 5\nvalue = [3, 5]\nclass = h"] ;
58 -> 59 ;
60 [label="gini = 0.298\nsamples = 7\nvalue = [9, 2]\nclass = C"] ;
58 -> 60 ;
61 [label="gini = 0.0\nsamples = 6\nvalue = [8, 0]\nclass = C"] ;
53 -> 61 ;
62 [label="InternetService_DSL <= 0.5\ngini = 0.198\nsamples = 21\nvalue = [24, 3]\nclass = C"] ;
52 -> 62 ;
63 [label="gini = 0.0\nsamples = 4\nvalue = [7, 0]\nclass = C"] ;
62 -> 63 ;
64 [label="MultipleLines_Yes <= 0.5\ngini = 0.255\nsamples = 17\nvalue = [17, 3]\nclass = C"] ;
62 -> 64 ;
65 [label="TotalCharges <= 263.45\ngini = 0.337\nsamples = 12\nvalue = [11, 3]\nclass = C"] ;
64 -> 65 ;
66 [label="gini = 0.0\nsamples = 2\nvalue = [0, 2]\nclass = h"] ;
65 -> 66 ;
67 [label="gini = 0.153\nsamples = 10\nvalue = [11, 1]\nclass = C"] ;
65 -> 67 ;
68 [label="gini = 0.0\nsamples = 5\nvalue = [6, 0]\nclass = C"] ;
64 -> 68 ;
69 [label="Partner_No <= 0.5\ngini = 0.181\nsamples = 135\nvalue = [188, 21]\nclass = C"] ;
31 -> 69 ;
70 [label="Contract_One year <= 0.5\ngini = 0.161\nsamples = 121\nvalue = [175, 17]\nclass = C"] ;
69 -> 70 ;
71 [label="SeniorCitizen_No <= 0.5\ngini = 0.158\nsamples = 93\nvalue = [137, 13]\nclass = C"] ;
70 -> 71 ;
72 [label="InternetService_DSL <= 0.5\ngini = 0.48\nsamples = 7\nvalue = [6, 4]\nclass = C"] ;
71 -> 72 ;
73 [label="gini = 0.5\nsamples = 4\nvalue = [3, 3]\nclass = C"] ;
72 -> 73 ;
74 [label="gini = 0.375\nsamples = 3\nvalue = [3, 1]\nclass = C"] ;
72 -> 74 ;
75 [label="StreamingTV_Yes <= 0.5\ngini = 0.12\nsamples = 86\nvalue = [131, 9]\nclass = C"] ;
71 -> 75 ;
76 [label="PaymentMethod_Bank transfer (automatic) <= 0.5\ngini = 0.258\nsamples = 26\nvalue = [39, 7]\nclass = C"] ;
75 -> 76 ;
77 [label="gini = 0.366\nsamples = 17\nvalue = [22, 7]\nclass = C"] ;
76 -> 77 ;
78 [label="gini = 0.0\nsamples = 9\nvalue = [17, 0]\nclass = C"] ;
76 -> 78 ;
79 [label="OnlineBackup_Yes <= 0.5\ngini = 0.042\nsamples = 60\nvalue = [92, 2]\nclass = C"] ;
75 -> 79 ;
80 [label="gini = 0.124\nsamples = 15\nvalue = [28, 2]\nclass = C"] ;
79 -> 80 ;
81 [label="gini = 0.0\nsamples = 45\nvalue = [64, 0]\nclass = C"] ;
79 -> 81 ;
82 [label="Gender_Male <= 0.5\ngini = 0.172\nsamples = 28\nvalue = [38, 4]\nclass = C"] ;
70 -> 82 ;
83 [label="gini = 0.0\nsamples = 9\nvalue = [16, 0]\nclass = C"] ;
82 -> 83 ;
84 [label="StreamingMovies_No <= 0.5\ngini = 0.26\nsamples = 19\nvalue = [22, 4]\nclass = C"] ;
82 -> 84 ;
85 [label="PaymentMethod_Credit card (automatic) <= 0.5\ngini = 0.172\nsamples = 15\nvalue = [19, 2]\nclass = C"] ;
84 -> 85 ;
86 [label="gini = 0.0\nsamples = 6\nvalue = [9, 0]\nclass = C"] ;
85 -> 86 ;
87 [label="gini = 0.278\nsamples = 9\nvalue = [10, 2]\nclass = C"] ;
85 -> 87 ;
88 [label="gini = 0.48\nsamples = 4\nvalue = [3, 2]\nclass = C"] ;
84 -> 88 ;
89 [label="OnlineBackup_Yes <= 0.5\ngini = 0.36\nsamples = 14\nvalue = [13, 4]\nclass = C"] ;
69 -> 89 ;
90 [label="InternetService_Fiber optic <= 0.5\ngini = 0.469\nsamples = 6\nvalue = [5, 3]\nclass = C"] ;
89 -> 90 ;
91 [label="gini = 0.444\nsamples = 4\nvalue = [4, 2]\nclass = C"] ;
90 -> 91 ;
92 [label="gini = 0.5\nsamples = 2\nvalue = [1, 1]\nclass = C"] ;
90 -> 92 ;
93 [label="Tenure <= 41.0\ngini = 0.198\nsamples = 8\nvalue = [8, 1]\nclass = C"] ;
89 -> 93 ;
94 [label="gini = 0.0\nsamples = 5\nvalue = [6, 0]\nclass = C"] ;
93 -> 94 ;
95 [label="gini = 0.444\nsamples = 3\nvalue = [2, 1]\nclass = C"] ;
93 -> 95 ;
96 [label="Gender_Male <= 0.5\ngini = 0.425\nsamples = 181\nvalue = [193, 85]\nclass = C"] ;
30 -> 96 ;
97 [label="StreamingTV_No <= 0.5\ngini = 0.472\nsamples = 86\nvalue = [86, 53]\nclass = C"] ;
96 -> 97 ;
98 [label="DeviceProtection_No <= 0.5\ngini = 0.466\nsamples = 45\nvalue = [46, 27]\nclass = C"] ;
97 -> 98 ;
99 [label="TotalCharges <= 3575.975\ngini = 0.26\nsamples = 23\nvalue = [33, 6]\nclass = C"] ;
98 -> 99 ;
100 [label="PaymentMethod_Bank transfer (automatic) <= 0.5\ngini = 0.408\nsamples = 9\nvalue = [10, 4]\nclass = C"] ;
99 -> 100 ;
101 [label="StreamingMovies_No <= 0.5\ngini = 0.32\nsamples = 6\nvalue = [8, 2]\nclass = C"] ;
100 -> 101 ;
102 [label="gini = 0.444\nsamples = 3\nvalue = [1, 2]\nclass = h"] ;
101 -> 102 ;
103 [label="gini = 0.0\nsamples = 3\nvalue = [7, 0]\nclass = C"] ;
101 -> 103 ;
104 [label="gini = 0.5\nsamples = 3\nvalue = [2, 2]\nclass = C"] ;
100 -> 104 ;
105 [label="PaymentMethod_Credit card (automatic) <= 0.5\ngini = 0.147\nsamples = 14\nvalue = [23, 2]\nclass = C"] ;
99 -> 105 ;
106 [label="gini = 0.0\nsamples = 4\nvalue = [7, 0]\nclass = C"] ;
105 -> 106 ;
107 [label="PaperlessBilling_Yes <= 0.5\ngini = 0.198\nsamples = 10\nvalue = [16, 2]\nclass = C"] ;
105 -> 107 ;
108 [label="gini = 0.0\nsamples = 3\nvalue = [5, 0]\nclass = C"] ;
107 -> 108 ;
109 [label="gini = 0.26\nsamples = 7\nvalue = [11, 2]\nclass = C"] ;
107 -> 109 ;
110 [label="PaperlessBilling_Yes <= 0.5\ngini = 0.472\nsamples = 22\nvalue = [13, 21]\nclass = h"] ;
98 -> 110 ;
111 [label="Partner_Yes <= 0.5\ngini = 0.42\nsamples = 8\nvalue = [7, 3]\nclass = C"] ;
110 -> 111 ;
112 [label="gini = 0.0\nsamples = 1\nvalue = [0, 1]\nclass = h"] ;
111 -> 112 ;
113 [label="StreamingMovies_Yes <= 0.5\ngini = 0.346\nsamples = 7\nvalue = [7, 2]\nclass = C"] ;
111 -> 113 ;
114 [label="gini = 0.0\nsamples = 2\nvalue = [2, 0]\nclass = C"] ;
113 -> 114 ;
115 [label="gini = 0.408\nsamples = 5\nvalue = [5, 2]\nclass = C"] ;
113 -> 115 ;
116 [label="InternetService_Fiber optic <= 0.5\ngini = 0.375\nsamples = 14\nvalue = [6, 18]\nclass = h"] ;
110 -> 116 ;
117 [label="PaymentMethod_Credit card (automatic) <= 0.5\ngini = 0.42\nsamples = 5\nvalue = [3, 7]\nclass = h"] ;
116 -> 117 ;
118 [label="gini = 0.0\nsamples = 3\nvalue = [0, 7]\nclass = h"] ;
117 -> 118 ;
119 [label="gini = 0.0\nsamples = 2\nvalue = [3, 0]\nclass = C"] ;
117 -> 119 ;
120 [label="PaymentMethod_Bank transfer (automatic) <= 0.5\ngini = 0.337\nsamples = 9\nvalue = [3, 11]\nclass = h"] ;
116 -> 120 ;
121 [label="gini = 0.165\nsamples = 6\nvalue = [1, 10]\nclass = h"] ;
120 -> 121 ;
122 [label="gini = 0.444\nsamples = 3\nvalue = [2, 1]\nclass = C"] ;
120 -> 122 ;
123 [label="DeviceProtection_No <= 0.5\ngini = 0.478\nsamples = 41\nvalue = [40, 26]\nclass = C"] ;
97 -> 123 ;
124 [label="StreamingMovies_Yes <= 0.5\ngini = 0.434\nsamples = 15\nvalue = [15, 7]\nclass = C"] ;
123 -> 124 ;
125 [label="TotalCharges <= 1446.45\ngini = 0.459\nsamples = 8\nvalue = [9, 5]\nclass = C"] ;
124 -> 125 ;
126 [label="gini = 0.408\nsamples = 4\nvalue = [2, 5]\nclass = h"] ;
125 -> 126 ;
127 [label="gini = 0.0\nsamples = 4\nvalue = [7, 0]\nclass = C"] ;
125 -> 127 ;
128 [label="Contract_Month-to-month <= 0.5\ngini = 0.375\nsamples = 7\nvalue = [6, 2]\nclass = C"] ;
124 -> 128 ;
129 [label="gini = 0.0\nsamples = 5\nvalue = [5, 0]\nclass = C"] ;
128 -> 129 ;
130 [label="gini = 0.444\nsamples = 2\nvalue = [1, 2]\nclass = h"] ;
128 -> 130 ;
131 [label="SeniorCitizen_No <= 0.5\ngini = 0.491\nsamples = 26\nvalue = [25, 19]\nclass = C"] ;
123 -> 131 ;
132 [label="gini = 0.0\nsamples = 1\nvalue = [0, 1]\nclass = h"] ;
131 -> 132 ;
133 [label="OnlineBackup_No <= 0.5\ngini = 0.487\nsamples = 25\nvalue = [25, 18]\nclass = C"] ;
131 -> 133 ;
134 [label="StreamingMovies_No <= 0.5\ngini = 0.426\nsamples = 7\nvalue = [9, 4]\nclass = C"] ;
133 -> 134 ;
135 [label="gini = 0.0\nsamples = 1\nvalue = [0, 2]\nclass = h"] ;
134 -> 135 ;
136 [label="gini = 0.298\nsamples = 6\nvalue = [9, 2]\nclass = C"] ;
134 -> 136 ;
137 [label="InternetService_Fiber optic <= 0.5\ngini = 0.498\nsamples = 18\nvalue = [16, 14]\nclass = C"] ;
133 -> 137 ;
138 [label="gini = 0.499\nsamples = 11\nvalue = [10, 9]\nclass = C"] ;
137 -> 138 ;
139 [label="gini = 0.496\nsamples = 7\nvalue = [6, 5]\nclass = C"] ;
137 -> 139 ;
140 [label="Contract_Two year <= 0.5\ngini = 0.354\nsamples = 95\nvalue = [107, 32]\nclass = C"] ;
96 -> 140 ;
141 [label="Partner_No <= 0.5\ngini = 0.393\nsamples = 73\nvalue = [76, 28]\nclass = C"] ;
140 -> 141 ;
142 [label="StreamingMovies_Yes <= 0.5\ngini = 0.326\nsamples = 60\nvalue = [66, 17]\nclass = C"] ;
141 -> 142 ;
143 [label="SeniorCitizen_Yes <= 0.5\ngini = 0.355\nsamples = 37\nvalue = [40, 12]\nclass = C"] ;
142 -> 143 ;
144 [label="Tenure <= 15.5\ngini = 0.325\nsamples = 35\nvalue = [39, 10]\nclass = C"] ;
143 -> 144 ;
145 [label="gini = 0.495\nsamples = 15\nvalue = [11, 9]\nclass = C"] ;
144 -> 145 ;
146 [label="gini = 0.067\nsamples = 20\nvalue = [28, 1]\nclass = C"] ;
144 -> 146 ;
147 [label="gini = 0.444\nsamples = 2\nvalue = [1, 2]\nclass = h"] ;
143 -> 147 ;
148 [label="SeniorCitizen_No <= 0.5\ngini = 0.271\nsamples = 23\nvalue = [26, 5]\nclass = C"] ;
142 -> 148 ;
149 [label="gini = 0.0\nsamples = 1\nvalue = [2, 0]\nclass = C"] ;
148 -> 149 ;
150 [label="StreamingTV_No <= 0.5\ngini = 0.285\nsamples = 22\nvalue = [24, 5]\nclass = C"] ;
148 -> 150 ;
151 [label="gini = 0.346\nsamples = 12\nvalue = [14, 4]\nclass = C"] ;
150 -> 151 ;
152 [label="gini = 0.165\nsamples = 10\nvalue = [10, 1]\nclass = C"] ;
150 -> 152 ;
153 [label="PaymentMethod_Credit card (automatic) <= 0.5\ngini = 0.499\nsamples = 13\nvalue = [10, 11]\nclass = h"] ;
141 -> 153 ;
154 [label="PaperlessBilling_Yes <= 0.5\ngini = 0.444\nsamples = 7\nvalue = [3, 6]\nclass = h"] ;
153 -> 154 ;
155 [label="gini = 0.0\nsamples = 1\nvalue = [0, 2]\nclass = h"] ;
154 -> 155 ;
156 [label="PaymentMethod_Mailed check <= 0.5\ngini = 0.49\nsamples = 6\nvalue = [3, 4]\nclass = h"] ;
154 -> 156 ;
157 [label="gini = 0.0\nsamples = 1\nvalue = [0, 1]\nclass = h"] ;
156 -> 157 ;
158 [label="gini = 0.5\nsamples = 5\nvalue = [3, 3]\nclass = C"] ;
156 -> 158 ;
159 [label="Contract_Month-to-month <= 0.5\ngini = 0.486\nsamples = 6\nvalue = [7, 5]\nclass = C"] ;
153 -> 159 ;
160 [label="gini = 0.0\nsamples = 2\nvalue = [3, 0]\nclass = C"] ;
159 -> 160 ;
161 [label="gini = 0.494\nsamples = 4\nvalue = [4, 5]\nclass = h"] ;
159 -> 161 ;
162 [label="MonthlyCharges <= 91.4\ngini = 0.202\nsamples = 22\nvalue = [31, 4]\nclass = C"] ;
140 -> 162 ;
163 [label="gini = 0.0\nsamples = 16\nvalue = [24, 0]\nclass = C"] ;
162 -> 163 ;
164 [label="OnlineSecurity_No <= 0.5\ngini = 0.463\nsamples = 6\nvalue = [7, 4]\nclass = C"] ;
162 -> 164 ;
165 [label="gini = 0.0\nsamples = 2\nvalue = [4, 0]\nclass = C"] ;
164 -> 165 ;
166 [label="gini = 0.49\nsamples = 4\nvalue = [3, 4]\nclass = h"] ;
164 -> 166 ;
167 [label="Contract_Month-to-month <= 0.5\ngini = 0.446\nsamples = 206\nvalue = [194, 98]\nclass = C"] ;
1 -> 167 ;
168 [label="DeviceProtection_No internet service <= 0.5\ngini = 0.245\nsamples = 80\nvalue = [96, 16]\nclass = C"] ;
167 -> 168 ;
169 [label="StreamingMovies_Yes <= 0.5\ngini = 0.26\nsamples = 74\nvalue = [88, 16]\nclass = C"] ;
168 -> 169 ;
170 [label="Gender_Female <= 0.5\ngini = 0.231\nsamples = 21\nvalue = [26, 4]\nclass = C"] ;
169 -> 170 ;
171 [label="Contract_Two year <= 0.5\ngini = 0.391\nsamples = 12\nvalue = [11, 4]\nclass = C"] ;
170 -> 171 ;
172 [label="DeviceProtection_No <= 0.5\ngini = 0.408\nsamples = 11\nvalue = [10, 4]\nclass = C"] ;
171 -> 172 ;
173 [label="OnlineSecurity_No <= 0.5\ngini = 0.444\nsamples = 6\nvalue = [6, 3]\nclass = C"] ;
172 -> 173 ;
174 [label="gini = 0.0\nsamples = 2\nvalue = [2, 0]\nclass = C"] ;
173 -> 174 ;
175 [label="gini = 0.49\nsamples = 4\nvalue = [4, 3]\nclass = C"] ;
173 -> 175 ;
176 [label="TechSupport_No <= 0.5\ngini = 0.32\nsamples = 5\nvalue = [4, 1]\nclass = C"] ;
172 -> 176 ;
177 [label="gini = 0.0\nsamples = 1\nvalue = [1, 0]\nclass = C"] ;
176 -> 177 ;
178 [label="gini = 0.375\nsamples = 4\nvalue = [3, 1]\nclass = C"] ;
176 -> 178 ;
179 [label="gini = 0.0\nsamples = 1\nvalue = [1, 0]\nclass = C"] ;
171 -> 179 ;
180 [label="gini = 0.0\nsamples = 9\nvalue = [15, 0]\nclass = C"] ;
170 -> 180 ;
181 [label="MonthlyCharges <= 100.7\ngini = 0.272\nsamples = 53\nvalue = [62, 12]\nclass = C"] ;
169 -> 181 ;
182 [label="OnlineSecurity_Yes <= 0.5\ngini = 0.147\nsamples = 35\nvalue = [46, 4]\nclass = C"] ;
181 -> 182 ;
183 [label="gini = 0.0\nsamples = 16\nvalue = [25, 0]\nclass = C"] ;
182 -> 183 ;
184 [label="Tenure <= 51.5\ngini = 0.269\nsamples = 19\nvalue = [21, 4]\nclass = C"] ;
182 -> 184 ;
185 [label="gini = 0.5\nsamples = 4\nvalue = [3, 3]\nclass = C"] ;
184 -> 185 ;
186 [label="MultipleLines_No <= 0.5\ngini = 0.1\nsamples = 15\nvalue = [18, 1]\nclass = C"] ;
184 -> 186 ;
187 [label="OnlineBackup_Yes <= 0.5\ngini = 0.165\nsamples = 9\nvalue = [10, 1]\nclass = C"] ;
186 -> 187 ;
188 [label="gini = 0.278\nsamples = 5\nvalue = [5, 1]\nclass = C"] ;
187 -> 188 ;
189 [label="gini = 0.0\nsamples = 4\nvalue = [5, 0]\nclass = C"] ;
187 -> 189 ;
190 [label="gini = 0.0\nsamples = 6\nvalue = [8, 0]\nclass = C"] ;
186 -> 190 ;
191 [label="TotalCharges <= 5180.775\ngini = 0.444\nsamples = 18\nvalue = [16, 8]\nclass = C"] ;
181 -> 191 ;
192 [label="TechSupport_Yes <= 0.5\ngini = 0.245\nsamples = 5\nvalue = [1, 6]\nclass = h"] ;
191 -> 192 ;
193 [label="gini = 0.0\nsamples = 1\nvalue = [0, 1]\nclass = h"] ;
192 -> 193 ;
194 [label="gini = 0.278\nsamples = 4\nvalue = [1, 5]\nclass = h"] ;
192 -> 194 ;
195 [label="Partner_No <= 0.5\ngini = 0.208\nsamples = 13\nvalue = [15, 2]\nclass = C"] ;
191 -> 195 ;
196 [label="OnlineBackup_No <= 0.5\ngini = 0.26\nsamples = 10\nvalue = [11, 2]\nclass = C"] ;
195 -> 196 ;
197 [label="OnlineSecurity_No <= 0.5\ngini = 0.32\nsamples = 8\nvalue = [8, 2]\nclass = C"] ;
196 -> 197 ;
198 [label="gini = 0.444\nsamples = 4\nvalue = [4, 2]\nclass = C"] ;
197 -> 198 ;
199 [label="gini = 0.0\nsamples = 4\nvalue = [4, 0]\nclass = C"] ;
197 -> 199 ;
200 [label="gini = 0.0\nsamples = 2\nvalue = [3, 0]\nclass = C"] ;
196 -> 200 ;
201 [label="gini = 0.0\nsamples = 3\nvalue = [4, 0]\nclass = C"] ;
195 -> 201 ;
202 [label="gini = 0.0\nsamples = 6\nvalue = [8, 0]\nclass = C"] ;
168 -> 202 ;
203 [label="TotalCharges <= 3057.8\ngini = 0.496\nsamples = 126\nvalue = [98, 82]\nclass = C"] ;
167 -> 203 ;
204 [label="OnlineSecurity_No internet service <= 0.5\ngini = 0.5\nsamples = 106\nvalue = [75, 76]\nclass = h"] ;
203 -> 204 ;
205 [label="TechSupport_No <= 0.5\ngini = 0.497\nsamples = 95\nvalue = [64, 74]\nclass = h"] ;
204 -> 205 ;
206 [label="InternetService_Fiber optic <= 0.5\ngini = 0.483\nsamples = 19\nvalue = [11, 16]\nclass = h"] ;
205 -> 206 ;
207 [label="StreamingMovies_Yes <= 0.5\ngini = 0.473\nsamples = 9\nvalue = [8, 5]\nclass = C"] ;
206 -> 207 ;
208 [label="PaperlessBilling_Yes <= 0.5\ngini = 0.444\nsamples = 5\nvalue = [4, 2]\nclass = C"] ;
207 -> 208 ;
209 [label="gini = 0.0\nsamples = 3\nvalue = [3, 0]\nclass = C"] ;
208 -> 209 ;
210 [label="gini = 0.444\nsamples = 2\nvalue = [1, 2]\nclass = h"] ;
208 -> 210 ;
211 [label="gini = 0.49\nsamples = 4\nvalue = [4, 3]\nclass = C"] ;
207 -> 211 ;
212 [label="Partner_No <= 0.5\ngini = 0.337\nsamples = 10\nvalue = [3, 11]\nclass = h"] ;
206 -> 212 ;
213 [label="PaperlessBilling_No <= 0.5\ngini = 0.278\nsamples = 8\nvalue = [2, 10]\nclass = h"] ;
212 -> 213 ;
214 [label="SeniorCitizen_No <= 0.5\ngini = 0.346\nsamples = 6\nvalue = [2, 7]\nclass = h"] ;
213 -> 214 ;
215 [label="gini = 0.0\nsamples = 1\nvalue = [0, 1]\nclass = h"] ;
214 -> 215 ;
216 [label="gini = 0.375\nsamples = 5\nvalue = [2, 6]\nclass = h"] ;
214 -> 216 ;
217 [label="gini = 0.0\nsamples = 2\nvalue = [0, 3]\nclass = h"] ;
213 -> 217 ;
218 [label="gini = 0.5\nsamples = 2\nvalue = [1, 1]\nclass = C"] ;
212 -> 218 ;
219 [label="PhoneService_No <= 0.5\ngini = 0.499\nsamples = 76\nvalue = [53, 58]\nclass = h"] ;
205 -> 219 ;
220 [label="MultipleLines_Yes <= 0.5\ngini = 0.497\nsamples = 66\nvalue = [43, 50]\nclass = h"] ;
219 -> 220 ;
221 [label="MonthlyCharges <= 93.2\ngini = 0.488\nsamples = 39\nvalue = [22, 30]\nclass = h"] ;
220 -> 221 ;
222 [label="PaperlessBilling_Yes <= 0.5\ngini = 0.475\nsamples = 37\nvalue = [19, 30]\nclass = h"] ;
221 -> 222 ;
223 [label="gini = 0.231\nsamples = 11\nvalue = [2, 13]\nclass = h"] ;
222 -> 223 ;
224 [label="gini = 0.5\nsamples = 26\nvalue = [17, 17]\nclass = C"] ;
222 -> 224 ;
225 [label="gini = 0.0\nsamples = 2\nvalue = [3, 0]\nclass = C"] ;
221 -> 225 ;
226 [label="Tenure <= 31.5\ngini = 0.5\nsamples = 27\nvalue = [21, 20]\nclass = C"] ;
220 -> 226 ;
227 [label="StreamingMovies_Yes <= 0.5\ngini = 0.499\nsamples = 25\nvalue = [18, 20]\nclass = h"] ;
226 -> 227 ;
228 [label="gini = 0.463\nsamples = 8\nvalue = [7, 4]\nclass = C"] ;
227 -> 228 ;
229 [label="gini = 0.483\nsamples = 17\nvalue = [11, 16]\nclass = h"] ;
227 -> 229 ;
230 [label="gini = 0.0\nsamples = 2\nvalue = [3, 0]\nclass = C"] ;
226 -> 230 ;
231 [label="Partner_No <= 0.5\ngini = 0.494\nsamples = 10\nvalue = [10, 8]\nclass = C"] ;
219 -> 231 ;
232 [label="Gender_Male <= 0.5\ngini = 0.426\nsamples = 7\nvalue = [9, 4]\nclass = C"] ;
231 -> 232 ;
233 [label="gini = 0.0\nsamples = 4\nvalue = [7, 0]\nclass = C"] ;
232 -> 233 ;
234 [label="gini = 0.444\nsamples = 3\nvalue = [2, 4]\nclass = h"] ;
232 -> 234 ;
235 [label="gini = 0.32\nsamples = 3\nvalue = [1, 4]\nclass = h"] ;
231 -> 235 ;
236 [label="PaperlessBilling_No <= 0.5\ngini = 0.26\nsamples = 11\nvalue = [11, 2]\nclass = C"] ;
204 -> 236 ;
237 [label="Gender_Male <= 0.5\ngini = 0.346\nsamples = 7\nvalue = [7, 2]\nclass = C"] ;
236 -> 237 ;
238 [label="Tenure <= 3.0\ngini = 0.444\nsamples = 5\nvalue = [4, 2]\nclass = C"] ;
237 -> 238 ;
239 [label="gini = 0.0\nsamples = 2\nvalue = [0, 2]\nclass = h"] ;
238 -> 239 ;
240 [label="gini = 0.0\nsamples = 3\nvalue = [4, 0]\nclass = C"] ;
238 -> 240 ;
241 [label="gini = 0.0\nsamples = 2\nvalue = [3, 0]\nclass = C"] ;
237 -> 241 ;
242 [label="gini = 0.0\nsamples = 4\nvalue = [4, 0]\nclass = C"] ;
236 -> 242 ;
243 [label="PhoneService_Yes <= 0.5\ngini = 0.328\nsamples = 20\nvalue = [23, 6]\nclass = C"] ;
203 -> 243 ;
244 [label="gini = 0.0\nsamples = 1\nvalue = [1, 0]\nclass = C"] ;
243 -> 244 ;
245 [label="TechSupport_No <= 0.5\ngini = 0.337\nsamples = 19\nvalue = [22, 6]\nclass = C"] ;
243 -> 245 ;
246 [label="StreamingTV_Yes <= 0.5\ngini = 0.494\nsamples = 6\nvalue = [5, 4]\nclass = C"] ;
245 -> 246 ;
247 [label="gini = 0.0\nsamples = 1\nvalue = [1, 0]\nclass = C"] ;
246 -> 247 ;
248 [label="InternetService_DSL <= 0.5\ngini = 0.5\nsamples = 5\nvalue = [4, 4]\nclass = C"] ;
246 -> 248 ;
249 [label="gini = 0.49\nsamples = 4\nvalue = [3, 4]\nclass = h"] ;
248 -> 249 ;
250 [label="gini = 0.0\nsamples = 1\nvalue = [1, 0]\nclass = C"] ;
248 -> 250 ;
251 [label="MonthlyCharges <= 99.65\ngini = 0.188\nsamples = 13\nvalue = [17, 2]\nclass = C"] ;
245 -> 251 ;
252 [label="MultipleLines_No <= 0.5\ngini = 0.117\nsamples = 11\nvalue = [15, 1]\nclass = C"] ;
251 -> 252 ;
253 [label="StreamingMovies_Yes <= 0.5\ngini = 0.245\nsamples = 6\nvalue = [6, 1]\nclass = C"] ;
252 -> 253 ;
254 [label="gini = 0.375\nsamples = 4\nvalue = [3, 1]\nclass = C"] ;
253 -> 254 ;
255 [label="gini = 0.0\nsamples = 2\nvalue = [3, 0]\nclass = C"] ;
253 -> 255 ;
256 [label="gini = 0.0\nsamples = 5\nvalue = [9, 0]\nclass = C"] ;
252 -> 256 ;
257 [label="gini = 0.444\nsamples = 2\nvalue = [2, 1]\nclass = C"] ;
251 -> 257 ;
258 [label="StreamingTV_No internet service <= 0.5\ngini = 0.425\nsamples = 2263\nvalue = [2475, 1095]\nclass = C"] ;
0 -> 258 [labeldistance=2.5, labelangle=-45, headlabel="False"] ;
259 [label="PhoneService_No <= 0.5\ngini = 0.455\nsamples = 1851\nvalue = [1894, 1017]\nclass = C"] ;
258 -> 259 ;
260 [label="TotalCharges <= 1629.875\ngini = 0.459\nsamples = 1658\nvalue = [1686, 935]\nclass = C"] ;
259 -> 260 ;
261 [label="InternetService_Fiber optic <= 0.5\ngini = 0.495\nsamples = 747\nvalue = [520, 634]\nclass = h"] ;
260 -> 261 ;
262 [label="SeniorCitizen_Yes <= 0.5\ngini = 0.449\nsamples = 281\nvalue = [286, 148]\nclass = C"] ;
261 -> 262 ;
263 [label="TotalCharges <= 310.475\ngini = 0.439\nsamples = 252\nvalue = [264, 127]\nclass = C"] ;
262 -> 263 ;
264 [label="TotalCharges <= 266.55\ngini = 0.499\nsamples = 121\nvalue = [96, 88]\nclass = C"] ;
263 -> 264 ;
265 [label="StreamingMovies_Yes <= 0.5\ngini = 0.497\nsamples = 115\nvalue = [95, 81]\nclass = C"] ;
264 -> 265 ;
266 [label="TotalCharges <= 229.4\ngini = 0.496\nsamples = 98\nvalue = [83, 70]\nclass = C"] ;
265 -> 266 ;
267 [label="gini = 0.499\nsamples = 92\nvalue = [74, 69]\nclass = C"] ;
266 -> 267 ;
268 [label="gini = 0.18\nsamples = 6\nvalue = [9, 1]\nclass = C"] ;
266 -> 268 ;
269 [label="PaymentMethod_Credit card (automatic) <= 0.5\ngini = 0.499\nsamples = 17\nvalue = [12, 11]\nclass = C"] ;
265 -> 269 ;
270 [label="gini = 0.5\nsamples = 16\nvalue = [11, 11]\nclass = C"] ;
269 -> 270 ;
271 [label="gini = 0.0\nsamples = 1\nvalue = [1, 0]\nclass = C"] ;
269 -> 271 ;
272 [label="PaperlessBilling_Yes <= 0.5\ngini = 0.219\nsamples = 6\nvalue = [1, 7]\nclass = h"] ;
264 -> 272 ;
273 [label="gini = 0.5\nsamples = 2\nvalue = [1, 1]\nclass = C"] ;
272 -> 273 ;
274 [label="gini = 0.0\nsamples = 4\nvalue = [0, 6]\nclass = h"] ;
272 -> 274 ;
275 [label="Tenure <= 24.5\ngini = 0.306\nsamples = 131\nvalue = [168, 39]\nclass = C"] ;
263 -> 275 ;
276 [label="PaymentMethod_Electronic check <= 0.5\ngini = 0.331\nsamples = 118\nvalue = [147, 39]\nclass = C"] ;
275 -> 276 ;
277 [label="MonthlyCharges <= 81.625\ngini = 0.343\nsamples = 81\nvalue = [103, 29]\nclass = C"] ;
276 -> 277 ;
278 [label="gini = 0.322\nsamples = 80\nvalue = [103, 26]\nclass = C"] ;
277 -> 278 ;
279 [label="gini = 0.0\nsamples = 1\nvalue = [0, 3]\nclass = h"] ;
277 -> 279 ;
280 [label="PaperlessBilling_No <= 0.5\ngini = 0.302\nsamples = 37\nvalue = [44, 10]\nclass = C"] ;
276 -> 280 ;
281 [label="gini = 0.238\nsamples = 21\nvalue = [25, 4]\nclass = C"] ;
280 -> 281 ;
282 [label="gini = 0.365\nsamples = 16\nvalue = [19, 6]\nclass = C"] ;
280 -> 282 ;
283 [label="gini = 0.0\nsamples = 13\nvalue = [21, 0]\nclass = C"] ;
275 -> 283 ;
284 [label="DeviceProtection_No <= 0.5\ngini = 0.5\nsamples = 29\nvalue = [22, 21]\nclass = C"] ;
262 -> 284 ;
285 [label="gini = 0.469\nsamples = 4\nvalue = [5, 3]\nclass = C"] ;
284 -> 285 ;
286 [label="TotalCharges <= 116.675\ngini = 0.5\nsamples = 25\nvalue = [17, 18]\nclass = h"] ;
284 -> 286 ;
287 [label="MonthlyCharges <= 45.15\ngini = 0.231\nsamples = 9\nvalue = [2, 13]\nclass = h"] ;
286 -> 287 ;
288 [label="gini = 0.0\nsamples = 5\nvalue = [0, 9]\nclass = h"] ;
287 -> 288 ;
289 [label="gini = 0.444\nsamples = 4\nvalue = [2, 4]\nclass = h"] ;
287 -> 289 ;
290 [label="PaymentMethod_Mailed check <= 0.5\ngini = 0.375\nsamples = 16\nvalue = [15, 5]\nclass = C"] ;
286 -> 290 ;
291 [label="Gender_Male <= 0.5\ngini = 0.444\nsamples = 12\nvalue = [10, 5]\nclass = C"] ;
290 -> 291 ;
292 [label="gini = 0.444\nsamples = 6\nvalue = [6, 3]\nclass = C"] ;
291 -> 292 ;
293 [label="gini = 0.444\nsamples = 6\nvalue = [4, 2]\nclass = C"] ;
291 -> 293 ;
294 [label="gini = 0.0\nsamples = 4\nvalue = [5, 0]\nclass = C"] ;
290 -> 294 ;
295 [label="SeniorCitizen_Yes <= 0.5\ngini = 0.439\nsamples = 466\nvalue = [234, 486]\nclass = h"] ;
261 -> 295 ;
296 [label="Contract_One year <= 0.5\ngini = 0.456\nsamples = 332\nvalue = [178, 327]\nclass = h"] ;
295 -> 296 ;
297 [label="OnlineSecurity_Yes <= 0.5\ngini = 0.457\nsamples = 327\nvalue = [176, 322]\nclass = h"] ;
296 -> 297 ;
298 [label="StreamingTV_No <= 0.5\ngini = 0.449\nsamples = 292\nvalue = [154, 299]\nclass = h"] ;
297 -> 298 ;
299 [label="MultipleLines_Yes <= 0.5\ngini = 0.33\nsamples = 98\nvalue = [30, 114]\nclass = h"] ;
298 -> 299 ;
300 [label="gini = 0.185\nsamples = 45\nvalue = [7, 61]\nclass = h"] ;
299 -> 300 ;
301 [label="gini = 0.422\nsamples = 53\nvalue = [23, 53]\nclass = h"] ;
299 -> 301 ;
302 [label="DeviceProtection_No <= 0.5\ngini = 0.481\nsamples = 194\nvalue = [124, 185]\nclass = h"] ;
298 -> 302 ;
303 [label="gini = 0.444\nsamples = 40\nvalue = [23, 46]\nclass = h"] ;
302 -> 303 ;
304 [label="gini = 0.487\nsamples = 154\nvalue = [101, 139]\nclass = h"] ;
302 -> 304 ;
305 [label="PaymentMethod_Electronic check <= 0.5\ngini = 0.5\nsamples = 35\nvalue = [22, 23]\nclass = h"] ;
297 -> 305 ;
306 [label="OnlineBackup_No <= 0.5\ngini = 0.499\nsamples = 16\nvalue = [12, 11]\nclass = C"] ;
305 -> 306 ;
307 [label="gini = 0.444\nsamples = 3\nvalue = [2, 1]\nclass = C"] ;
306 -> 307 ;
308 [label="gini = 0.5\nsamples = 13\nvalue = [10, 10]\nclass = C"] ;
306 -> 308 ;
309 [label="TechSupport_Yes <= 0.5\ngini = 0.496\nsamples = 19\nvalue = [10, 12]\nclass = h"] ;
305 -> 309 ;
310 [label="gini = 0.5\nsamples = 17\nvalue = [10, 10]\nclass = C"] ;
309 -> 310 ;
311 [label="gini = 0.0\nsamples = 2\nvalue = [0, 2]\nclass = h"] ;
309 -> 311 ;
312 [label="TechSupport_No <= 0.5\ngini = 0.408\nsamples = 5\nvalue = [2, 5]\nclass = h"] ;
296 -> 312 ;
313 [label="gini = 0.0\nsamples = 2\nvalue = [0, 4]\nclass = h"] ;
312 -> 313 ;
314 [label="gini = 0.444\nsamples = 3\nvalue = [2, 1]\nclass = C"] ;
312 -> 314 ;
315 [label="PaperlessBilling_Yes <= 0.5\ngini = 0.385\nsamples = 134\nvalue = [56, 159]\nclass = h"] ;
295 -> 315 ;
316 [label="Tenure <= 12.0\ngini = 0.498\nsamples = 20\nvalue = [16, 18]\nclass = h"] ;
315 -> 316 ;
317 [label="OnlineSecurity_No <= 0.5\ngini = 0.463\nsamples = 13\nvalue = [8, 14]\nclass = h"] ;
316 -> 317 ;
318 [label="gini = 0.32\nsamples = 3\nvalue = [4, 1]\nclass = C"] ;
317 -> 318 ;
319 [label="MultipleLines_No <= 0.5\ngini = 0.36\nsamples = 10\nvalue = [4, 13]\nclass = h"] ;
317 -> 319 ;
320 [label="gini = 0.18\nsamples = 6\nvalue = [1, 9]\nclass = h"] ;
319 -> 320 ;
321 [label="gini = 0.49\nsamples = 4\nvalue = [3, 4]\nclass = h"] ;
319 -> 321 ;
322 [label="OnlineSecurity_No <= 0.5\ngini = 0.444\nsamples = 7\nvalue = [8, 4]\nclass = C"] ;
316 -> 322 ;
323 [label="gini = 0.0\nsamples = 2\nvalue = [4, 0]\nclass = C"] ;
322 -> 323 ;
324 [label="PaymentMethod_Credit card (automatic) <= 0.5\ngini = 0.5\nsamples = 5\nvalue = [4, 4]\nclass = C"] ;
322 -> 324 ;
325 [label="gini = 0.0\nsamples = 2\nvalue = [3, 0]\nclass = C"] ;
324 -> 325 ;
326 [label="gini = 0.32\nsamples = 3\nvalue = [1, 4]\nclass = h"] ;
324 -> 326 ;
327 [label="Gender_Female <= 0.5\ngini = 0.344\nsamples = 114\nvalue = [40, 141]\nclass = h"] ;
315 -> 327 ;
328 [label="StreamingTV_No <= 0.5\ngini = 0.394\nsamples = 57\nvalue = [24, 65]\nclass = h"] ;
327 -> 328 ;
329 [label="StreamingMovies_No <= 0.5\ngini = 0.295\nsamples = 23\nvalue = [7, 32]\nclass = h"] ;
328 -> 329 ;
330 [label="gini = 0.238\nsamples = 16\nvalue = [4, 25]\nclass = h"] ;
329 -> 330 ;
331 [label="gini = 0.42\nsamples = 7\nvalue = [3, 7]\nclass = h"] ;
329 -> 331 ;
332 [label="OnlineSecurity_No <= 0.5\ngini = 0.449\nsamples = 34\nvalue = [17, 33]\nclass = h"] ;
328 -> 332 ;
333 [label="gini = 0.0\nsamples = 2\nvalue = [0, 3]\nclass = h"] ;
332 -> 333 ;
334 [label="gini = 0.462\nsamples = 32\nvalue = [17, 30]\nclass = h"] ;
332 -> 334 ;
335 [label="PaymentMethod_Mailed check <= 0.5\ngini = 0.287\nsamples = 57\nvalue = [16, 76]\nclass = h"] ;
327 -> 335 ;
336 [label="Tenure <= 3.5\ngini = 0.298\nsamples = 55\nvalue = [16, 72]\nclass = h"] ;
335 -> 336 ;
337 [label="gini = 0.0\nsamples = 17\nvalue = [0, 26]\nclass = h"] ;
336 -> 337 ;
338 [label="gini = 0.383\nsamples = 38\nvalue = [16, 46]\nclass = h"] ;
336 -> 338 ;
339 [label="gini = 0.0\nsamples = 2\nvalue = [0, 4]\nclass = h"] ;
335 -> 339 ;
340 [label="MultipleLines_No <= 0.5\ngini = 0.326\nsamples = 911\nvalue = [1166, 301]\nclass = C"] ;
260 -> 340 ;
341 [label="Tenure <= 34.5\ngini = 0.373\nsamples = 605\nvalue = [723, 239]\nclass = C"] ;
340 -> 341 ;
342 [label="PaymentMethod_Mailed check <= 0.5\ngini = 0.5\nsamples = 136\nvalue = [103, 107]\nclass = h"] ;
341 -> 342 ;
343 [label="DeviceProtection_Yes <= 0.5\ngini = 0.498\nsamples = 126\nvalue = [92, 105]\nclass = h"] ;
342 -> 343 ;
344 [label="TechSupport_Yes <= 0.5\ngini = 0.492\nsamples = 78\nvalue = [54, 70]\nclass = h"] ;
343 -> 344 ;
345 [label="SeniorCitizen_No <= 0.5\ngini = 0.454\nsamples = 53\nvalue = [31, 58]\nclass = h"] ;
344 -> 345 ;
346 [label="gini = 0.346\nsamples = 20\nvalue = [8, 28]\nclass = h"] ;
345 -> 346 ;
347 [label="gini = 0.491\nsamples = 33\nvalue = [23, 30]\nclass = h"] ;
345 -> 347 ;
348 [label="TotalCharges <= 1858.475\ngini = 0.451\nsamples = 25\nvalue = [23, 12]\nclass = C"] ;
344 -> 348 ;
349 [label="gini = 0.0\nsamples = 4\nvalue = [9, 0]\nclass = C"] ;
348 -> 349 ;
350 [label="gini = 0.497\nsamples = 21\nvalue = [14, 12]\nclass = C"] ;
348 -> 350 ;
351 [label="Gender_Female <= 0.5\ngini = 0.499\nsamples = 48\nvalue = [38, 35]\nclass = C"] ;
343 -> 351 ;
352 [label="Contract_One year <= 0.5\ngini = 0.489\nsamples = 28\nvalue = [23, 17]\nclass = C"] ;
351 -> 352 ;
353 [label="gini = 0.494\nsamples = 26\nvalue = [21, 17]\nclass = C"] ;
352 -> 353 ;
354 [label="gini = 0.0\nsamples = 2\nvalue = [2, 0]\nclass = C"] ;
352 -> 354 ;
355 [label="InternetService_Fiber optic <= 0.5\ngini = 0.496\nsamples = 20\nvalue = [15, 18]\nclass = h"] ;
351 -> 355 ;
356 [label="gini = 0.444\nsamples = 2\nvalue = [2, 1]\nclass = C"] ;
355 -> 356 ;
357 [label="gini = 0.491\nsamples = 18\nvalue = [13, 17]\nclass = h"] ;
355 -> 357 ;
358 [label="PaperlessBilling_Yes <= 0.5\ngini = 0.26\nsamples = 10\nvalue = [11, 2]\nclass = C"] ;
342 -> 358 ;
359 [label="SeniorCitizen_No <= 0.5\ngini = 0.219\nsamples = 7\nvalue = [7, 1]\nclass = C"] ;
358 -> 359 ;
360 [label="gini = 0.0\nsamples = 1\nvalue = [0, 1]\nclass = h"] ;
359 -> 360 ;
361 [label="gini = 0.0\nsamples = 6\nvalue = [7, 0]\nclass = C"] ;
359 -> 361 ;
362 [label="gini = 0.32\nsamples = 3\nvalue = [4, 1]\nclass = C"] ;
358 -> 362 ;
363 [label="PaymentMethod_Bank transfer (automatic) <= 0.5\ngini = 0.289\nsamples = 469\nvalue = [620, 132]\nclass = C"] ;
341 -> 363 ;
364 [label="OnlineSecurity_No <= 0.5\ngini = 0.32\nsamples = 329\nvalue = [420, 105]\nclass = C"] ;
363 -> 364 ;
365 [label="OnlineBackup_Yes <= 0.5\ngini = 0.147\nsamples = 166\nvalue = [254, 22]\nclass = C"] ;
364 -> 365 ;
366 [label="SeniorCitizen_Yes <= 0.5\ngini = 0.164\nsamples = 58\nvalue = [91, 9]\nclass = C"] ;
365 -> 366 ;
367 [label="gini = 0.071\nsamples = 46\nvalue = [78, 3]\nclass = C"] ;
366 -> 367 ;
368 [label="gini = 0.432\nsamples = 12\nvalue = [13, 6]\nclass = C"] ;
366 -> 368 ;
369 [label="TechSupport_Yes <= 0.5\ngini = 0.137\nsamples = 108\nvalue = [163, 13]\nclass = C"] ;
365 -> 369 ;
370 [label="gini = 0.17\nsamples = 43\nvalue = [58, 6]\nclass = C"] ;
369 -> 370 ;
371 [label="gini = 0.117\nsamples = 65\nvalue = [105, 7]\nclass = C"] ;
369 -> 371 ;
372 [label="Tenure <= 70.5\ngini = 0.444\nsamples = 163\nvalue = [166, 83]\nclass = C"] ;
364 -> 372 ;
373 [label="DeviceProtection_Yes <= 0.5\ngini = 0.463\nsamples = 149\nvalue = [145, 83]\nclass = C"] ;
372 -> 373 ;
374 [label="gini = 0.447\nsamples = 67\nvalue = [65, 33]\nclass = C"] ;
373 -> 374 ;
375 [label="gini = 0.473\nsamples = 82\nvalue = [80, 50]\nclass = C"] ;
373 -> 375 ;
376 [label="gini = 0.0\nsamples = 14\nvalue = [21, 0]\nclass = C"] ;
372 -> 376 ;
377 [label="PaperlessBilling_No <= 0.5\ngini = 0.21\nsamples = 140\nvalue = [200, 27]\nclass = C"] ;
363 -> 377 ;
378 [label="Tenure <= 44.5\ngini = 0.218\nsamples = 94\nvalue = [141, 20]\nclass = C"] ;
377 -> 378 ;
379 [label="Contract_Month-to-month <= 0.5\ngini = 0.491\nsamples = 17\nvalue = [13, 10]\nclass = C"] ;
378 -> 379 ;
380 [label="gini = 0.0\nsamples = 5\nvalue = [7, 0]\nclass = C"] ;
379 -> 380 ;
381 [label="gini = 0.469\nsamples = 12\nvalue = [6, 10]\nclass = h"] ;
379 -> 381 ;
382 [label="Gender_Male <= 0.5\ngini = 0.134\nsamples = 77\nvalue = [128, 10]\nclass = C"] ;
378 -> 382 ;
383 [label="gini = 0.124\nsamples = 42\nvalue = [70, 5]\nclass = C"] ;
382 -> 383 ;
384 [label="gini = 0.146\nsamples = 35\nvalue = [58, 5]\nclass = C"] ;
382 -> 384 ;
385 [label="TotalCharges <= 5763.225\ngini = 0.19\nsamples = 46\nvalue = [59, 7]\nclass = C"] ;
377 -> 385 ;
386 [label="Partner_Yes <= 0.5\ngini = 0.093\nsamples = 27\nvalue = [39, 2]\nclass = C"] ;
385 -> 386 ;
387 [label="gini = 0.231\nsamples = 12\nvalue = [13, 2]\nclass = C"] ;
386 -> 387 ;
388 [label="gini = 0.0\nsamples = 15\nvalue = [26, 0]\nclass = C"] ;
386 -> 388 ;
389 [label="OnlineBackup_Yes <= 0.5\ngini = 0.32\nsamples = 19\nvalue = [20, 5]\nclass = C"] ;
385 -> 389 ;
390 [label="gini = 0.49\nsamples = 4\nvalue = [4, 3]\nclass = C"] ;
389 -> 390 ;
391 [label="gini = 0.198\nsamples = 15\nvalue = [16, 2]\nclass = C"] ;
389 -> 391 ;
392 [label="Partner_No <= 0.5\ngini = 0.215\nsamples = 306\nvalue = [443, 62]\nclass = C"] ;
340 -> 392 ;
393 [label="Tenure <= 42.5\ngini = 0.182\nsamples = 131\nvalue = [195, 22]\nclass = C"] ;
392 -> 393 ;
394 [label="TechSupport_Yes <= 0.5\ngini = 0.386\nsamples = 46\nvalue = [51, 18]\nclass = C"] ;
393 -> 394 ;
395 [label="StreamingMovies_Yes <= 0.5\ngini = 0.48\nsamples = 26\nvalue = [21, 14]\nclass = C"] ;
394 -> 395 ;
396 [label="StreamingTV_Yes <= 0.5\ngini = 0.397\nsamples = 10\nvalue = [8, 3]\nclass = C"] ;
395 -> 396 ;
397 [label="gini = 0.444\nsamples = 8\nvalue = [6, 3]\nclass = C"] ;
396 -> 397 ;
398 [label="gini = 0.0\nsamples = 2\nvalue = [2, 0]\nclass = C"] ;
396 -> 398 ;
399 [label="SeniorCitizen_No <= 0.5\ngini = 0.497\nsamples = 16\nvalue = [13, 11]\nclass = C"] ;
395 -> 399 ;
400 [label="gini = 0.496\nsamples = 9\nvalue = [6, 5]\nclass = C"] ;
399 -> 400 ;
401 [label="gini = 0.497\nsamples = 7\nvalue = [7, 6]\nclass = C"] ;
399 -> 401 ;
402 [label="PaymentMethod_Electronic check <= 0.5\ngini = 0.208\nsamples = 20\nvalue = [30, 4]\nclass = C"] ;
394 -> 402 ;
403 [label="MonthlyCharges <= 97.45\ngini = 0.287\nsamples = 15\nvalue = [19, 4]\nclass = C"] ;
402 -> 403 ;
404 [label="gini = 0.0\nsamples = 12\nvalue = [18, 0]\nclass = C"] ;
403 -> 404 ;
405 [label="gini = 0.32\nsamples = 3\nvalue = [1, 4]\nclass = h"] ;
403 -> 405 ;
406 [label="gini = 0.0\nsamples = 5\nvalue = [11, 0]\nclass = C"] ;
402 -> 406 ;
407 [label="Contract_Two year <= 0.5\ngini = 0.053\nsamples = 85\nvalue = [144, 4]\nclass = C"] ;
393 -> 407 ;
408 [label="StreamingTV_No <= 0.5\ngini = 0.098\nsamples = 45\nvalue = [73, 4]\nclass = C"] ;
407 -> 408 ;
409 [label="gini = 0.0\nsamples = 28\nvalue = [51, 0]\nclass = C"] ;
408 -> 409 ;
410 [label="Contract_Month-to-month <= 0.5\ngini = 0.26\nsamples = 17\nvalue = [22, 4]\nclass = C"] ;
408 -> 410 ;
411 [label="gini = 0.291\nsamples = 13\nvalue = [14, 3]\nclass = C"] ;
410 -> 411 ;
412 [label="gini = 0.198\nsamples = 4\nvalue = [8, 1]\nclass = C"] ;
410 -> 412 ;
413 [label="gini = 0.0\nsamples = 40\nvalue = [71, 0]\nclass = C"] ;
407 -> 413 ;
414 [label="Gender_Female <= 0.5\ngini = 0.239\nsamples = 175\nvalue = [248, 40]\nclass = C"] ;
392 -> 414 ;
415 [label="MonthlyCharges <= 95.425\ngini = 0.18\nsamples = 86\nvalue = [126, 14]\nclass = C"] ;
414 -> 415 ;
416 [label="MonthlyCharges <= 55.45\ngini = 0.121\nsamples = 66\nvalue = [101, 7]\nclass = C"] ;
415 -> 416 ;
417 [label="Contract_Two year <= 0.5\ngini = 0.408\nsamples = 7\nvalue = [10, 4]\nclass = C"] ;
416 -> 417 ;
418 [label="gini = 0.463\nsamples = 6\nvalue = [7, 4]\nclass = C"] ;
417 -> 418 ;
419 [label="gini = 0.0\nsamples = 1\nvalue = [3, 0]\nclass = C"] ;
417 -> 419 ;
420 [label="PaymentMethod_Credit card (automatic) <= 0.5\ngini = 0.062\nsamples = 59\nvalue = [91, 3]\nclass = C"] ;
416 -> 420 ;
421 [label="gini = 0.051\nsamples = 46\nvalue = [75, 2]\nclass = C"] ;
420 -> 421 ;
422 [label="gini = 0.111\nsamples = 13\nvalue = [16, 1]\nclass = C"] ;
420 -> 422 ;
423 [label="MonthlyCharges <= 96.05\ngini = 0.342\nsamples = 20\nvalue = [25, 7]\nclass = C"] ;
415 -> 423 ;
424 [label="gini = 0.0\nsamples = 2\nvalue = [0, 3]\nclass = h"] ;
423 -> 424 ;
425 [label="TotalCharges <= 5337.625\ngini = 0.238\nsamples = 18\nvalue = [25, 4]\nclass = C"] ;
423 -> 425 ;
426 [label="gini = 0.0\nsamples = 14\nvalue = [21, 0]\nclass = C"] ;
425 -> 426 ;
427 [label="gini = 0.5\nsamples = 4\nvalue = [4, 4]\nclass = C"] ;
425 -> 427 ;
428 [label="PaperlessBilling_No <= 0.5\ngini = 0.29\nsamples = 89\nvalue = [122, 26]\nclass = C"] ;
414 -> 428 ;
429 [label="PaymentMethod_Mailed check <= 0.5\ngini = 0.314\nsamples = 67\nvalue = [91, 22]\nclass = C"] ;
428 -> 429 ;
430 [label="TotalCharges <= 3273.625\ngini = 0.329\nsamples = 56\nvalue = [80, 21]\nclass = C"] ;
429 -> 430 ;
431 [label="gini = 0.449\nsamples = 30\nvalue = [33, 17]\nclass = C"] ;
430 -> 431 ;
432 [label="gini = 0.145\nsamples = 26\nvalue = [47, 4]\nclass = C"] ;
430 -> 432 ;
433 [label="Tenure <= 29.0\ngini = 0.153\nsamples = 11\nvalue = [11, 1]\nclass = C"] ;
429 -> 433 ;
434 [label="gini = 0.5\nsamples = 2\nvalue = [1, 1]\nclass = C"] ;
433 -> 434 ;
435 [label="gini = 0.0\nsamples = 9\nvalue = [10, 0]\nclass = C"] ;
433 -> 435 ;
436 [label="OnlineBackup_Yes <= 0.5\ngini = 0.202\nsamples = 22\nvalue = [31, 4]\nclass = C"] ;
428 -> 436 ;
437 [label="Contract_Two year <= 0.5\ngini = 0.375\nsamples = 9\nvalue = [9, 3]\nclass = C"] ;
436 -> 437 ;
438 [label="gini = 0.278\nsamples = 5\nvalue = [5, 1]\nclass = C"] ;
437 -> 438 ;
439 [label="gini = 0.444\nsamples = 4\nvalue = [4, 2]\nclass = C"] ;
437 -> 439 ;
440 [label="OnlineSecurity_No <= 0.5\ngini = 0.083\nsamples = 13\nvalue = [22, 1]\nclass = C"] ;
436 -> 440 ;
441 [label="gini = 0.117\nsamples = 8\nvalue = [15, 1]\nclass = C"] ;
440 -> 441 ;
442 [label="gini = 0.0\nsamples = 5\nvalue = [7, 0]\nclass = C"] ;
440 -> 442 ;
443 [label="PaymentMethod_Credit card (automatic) <= 0.5\ngini = 0.406\nsamples = 193\nvalue = [208, 82]\nclass = C"] ;
259 -> 443 ;
444 [label="Contract_Two year <= 0.5\ngini = 0.422\nsamples = 158\nvalue = [168, 73]\nclass = C"] ;
443 -> 444 ;
445 [label="Contract_Month-to-month <= 0.5\ngini = 0.448\nsamples = 132\nvalue = [139, 71]\nclass = C"] ;
444 -> 445 ;
446 [label="StreamingMovies_No <= 0.5\ngini = 0.122\nsamples = 26\nvalue = [43, 3]\nclass = C"] ;
445 -> 446 ;
447 [label="SeniorCitizen_Yes <= 0.5\ngini = 0.204\nsamples = 17\nvalue = [23, 3]\nclass = C"] ;
446 -> 447 ;
448 [label="PaymentMethod_Electronic check <= 0.5\ngini = 0.153\nsamples = 15\nvalue = [22, 2]\nclass = C"] ;
447 -> 448 ;
449 [label="TotalCharges <= 1096.175\ngini = 0.444\nsamples = 5\nvalue = [4, 2]\nclass = C"] ;
448 -> 449 ;
450 [label="gini = 0.0\nsamples = 1\nvalue = [0, 1]\nclass = h"] ;
449 -> 450 ;
451 [label="gini = 0.32\nsamples = 4\nvalue = [4, 1]\nclass = C"] ;
449 -> 451 ;
452 [label="gini = 0.0\nsamples = 10\nvalue = [18, 0]\nclass = C"] ;
448 -> 452 ;
453 [label="gini = 0.5\nsamples = 2\nvalue = [1, 1]\nclass = C"] ;
447 -> 453 ;
454 [label="gini = 0.0\nsamples = 9\nvalue = [20, 0]\nclass = C"] ;
446 -> 454 ;
455 [label="OnlineSecurity_Yes <= 0.5\ngini = 0.485\nsamples = 106\nvalue = [96, 68]\nclass = C"] ;
445 -> 455 ;
456 [label="StreamingMovies_Yes <= 0.5\ngini = 0.494\nsamples = 83\nvalue = [72, 58]\nclass = C"] ;
455 -> 456 ;
457 [label="StreamingTV_No <= 0.5\ngini = 0.484\nsamples = 55\nvalue = [53, 37]\nclass = C"] ;
456 -> 457 ;
458 [label="gini = 0.48\nsamples = 4\nvalue = [3, 2]\nclass = C"] ;
457 -> 458 ;
459 [label="PaymentMethod_Electronic check <= 0.5\ngini = 0.484\nsamples = 51\nvalue = [50, 35]\nclass = C"] ;
457 -> 459 ;
460 [label="gini = 0.438\nsamples = 23\nvalue = [23, 11]\nclass = C"] ;
459 -> 460 ;
461 [label="gini = 0.498\nsamples = 28\nvalue = [27, 24]\nclass = C"] ;
459 -> 461 ;
462 [label="DeviceProtection_Yes <= 0.5\ngini = 0.499\nsamples = 28\nvalue = [19, 21]\nclass = h"] ;
456 -> 462 ;
463 [label="StreamingTV_Yes <= 0.5\ngini = 0.408\nsamples = 15\nvalue = [6, 15]\nclass = h"] ;
462 -> 463 ;
464 [label="gini = 0.298\nsamples = 7\nvalue = [2, 9]\nclass = h"] ;
463 -> 464 ;
465 [label="gini = 0.48\nsamples = 8\nvalue = [4, 6]\nclass = h"] ;
463 -> 465 ;
466 [label="TechSupport_Yes <= 0.5\ngini = 0.432\nsamples = 13\nvalue = [13, 6]\nclass = C"] ;
462 -> 466 ;
467 [label="gini = 0.469\nsamples = 12\nvalue = [10, 6]\nclass = C"] ;
466 -> 467 ;
468 [label="gini = 0.0\nsamples = 1\nvalue = [3, 0]\nclass = C"] ;
466 -> 468 ;
469 [label="MonthlyCharges <= 37.1\ngini = 0.415\nsamples = 23\nvalue = [24, 10]\nclass = C"] ;
455 -> 469 ;
470 [label="gini = 0.0\nsamples = 6\nvalue = [8, 0]\nclass = C"] ;
469 -> 470 ;
471 [label="PaymentMethod_Electronic check <= 0.5\ngini = 0.473\nsamples = 17\nvalue = [16, 10]\nclass = C"] ;
469 -> 471 ;
472 [label="StreamingTV_Yes <= 0.5\ngini = 0.444\nsamples = 11\nvalue = [10, 5]\nclass = C"] ;
471 -> 472 ;
473 [label="gini = 0.494\nsamples = 6\nvalue = [4, 5]\nclass = h"] ;
472 -> 473 ;
474 [label="gini = 0.0\nsamples = 5\nvalue = [6, 0]\nclass = C"] ;
472 -> 474 ;
475 [label="DeviceProtection_No <= 0.5\ngini = 0.496\nsamples = 6\nvalue = [6, 5]\nclass = C"] ;
471 -> 475 ;
476 [label="gini = 0.0\nsamples = 1\nvalue = [1, 0]\nclass = C"] ;
475 -> 476 ;
477 [label="gini = 0.5\nsamples = 5\nvalue = [5, 5]\nclass = C"] ;
475 -> 477 ;
478 [label="Gender_Male <= 0.5\ngini = 0.121\nsamples = 26\nvalue = [29, 2]\nclass = C"] ;
444 -> 478 ;
479 [label="StreamingMovies_No <= 0.5\ngini = 0.26\nsamples = 12\nvalue = [11, 2]\nclass = C"] ;
478 -> 479 ;
480 [label="PaperlessBilling_No <= 0.5\ngini = 0.444\nsamples = 5\nvalue = [4, 2]\nclass = C"] ;
479 -> 480 ;
481 [label="gini = 0.375\nsamples = 3\nvalue = [3, 1]\nclass = C"] ;
480 -> 481 ;
482 [label="gini = 0.5\nsamples = 2\nvalue = [1, 1]\nclass = C"] ;
480 -> 482 ;
483 [label="gini = 0.0\nsamples = 7\nvalue = [7, 0]\nclass = C"] ;
479 -> 483 ;
484 [label="gini = 0.0\nsamples = 14\nvalue = [18, 0]\nclass = C"] ;
478 -> 484 ;
485 [label="OnlineSecurity_No <= 0.5\ngini = 0.3\nsamples = 35\nvalue = [40, 9]\nclass = C"] ;
443 -> 485 ;
486 [label="Contract_Month-to-month <= 0.5\ngini = 0.231\nsamples = 12\nvalue = [13, 2]\nclass = C"] ;
485 -> 486 ;
487 [label="gini = 0.0\nsamples = 9\nvalue = [12, 0]\nclass = C"] ;
486 -> 487 ;
488 [label="gini = 0.444\nsamples = 3\nvalue = [1, 2]\nclass = h"] ;
486 -> 488 ;
489 [label="TechSupport_No <= 0.5\ngini = 0.327\nsamples = 23\nvalue = [27, 7]\nclass = C"] ;
485 -> 489 ;
490 [label="Contract_Two year <= 0.5\ngini = 0.444\nsamples = 7\nvalue = [6, 3]\nclass = C"] ;
489 -> 490 ;
491 [label="MonthlyCharges <= 31.15\ngini = 0.49\nsamples = 5\nvalue = [4, 3]\nclass = C"] ;
490 -> 491 ;
492 [label="gini = 0.0\nsamples = 1\nvalue = [0, 1]\nclass = h"] ;
491 -> 492 ;
493 [label="gini = 0.444\nsamples = 4\nvalue = [4, 2]\nclass = C"] ;
491 -> 493 ;
494 [label="gini = 0.0\nsamples = 2\nvalue = [2, 0]\nclass = C"] ;
490 -> 494 ;
495 [label="MonthlyCharges <= 34.5\ngini = 0.269\nsamples = 16\nvalue = [21, 4]\nclass = C"] ;
489 -> 495 ;
496 [label="gini = 0.0\nsamples = 8\nvalue = [13, 0]\nclass = C"] ;
495 -> 496 ;
497 [label="StreamingTV_Yes <= 0.5\ngini = 0.444\nsamples = 8\nvalue = [8, 4]\nclass = C"] ;
495 -> 497 ;
498 [label="gini = 0.5\nsamples = 2\nvalue = [1, 1]\nclass = C"] ;
497 -> 498 ;
499 [label="Contract_Month-to-month <= 0.5\ngini = 0.42\nsamples = 6\nvalue = [7, 3]\nclass = C"] ;
497 -> 499 ;
500 [label="gini = 0.375\nsamples = 3\nvalue = [3, 1]\nclass = C"] ;
499 -> 500 ;
501 [label="gini = 0.444\nsamples = 3\nvalue = [4, 2]\nclass = C"] ;
499 -> 501 ;
502 [label="TotalCharges <= 38.75\ngini = 0.209\nsamples = 412\nvalue = [581, 78]\nclass = C"] ;
258 -> 502 ;
503 [label="MultipleLines_Yes <= 0.5\ngini = 0.482\nsamples = 65\nvalue = [63, 43]\nclass = C"] ;
502 -> 503 ;
504 [label="PaperlessBilling_No <= 0.5\ngini = 0.477\nsamples = 63\nvalue = [62, 40]\nclass = C"] ;
503 -> 504 ;
505 [label="Gender_Male <= 0.5\ngini = 0.464\nsamples = 18\nvalue = [11, 19]\nclass = h"] ;
504 -> 505 ;
506 [label="SeniorCitizen_No <= 0.5\ngini = 0.408\nsamples = 9\nvalue = [4, 10]\nclass = h"] ;
505 -> 506 ;
507 [label="gini = 0.0\nsamples = 2\nvalue = [0, 3]\nclass = h"] ;
506 -> 507 ;
508 [label="MonthlyCharges <= 19.875\ngini = 0.463\nsamples = 7\nvalue = [4, 7]\nclass = h"] ;
506 -> 508 ;
509 [label="gini = 0.48\nsamples = 3\nvalue = [3, 2]\nclass = C"] ;
508 -> 509 ;
510 [label="gini = 0.278\nsamples = 4\nvalue = [1, 5]\nclass = h"] ;
508 -> 510 ;
511 [label="TotalCharges <= 20.225\ngini = 0.492\nsamples = 9\nvalue = [7, 9]\nclass = h"] ;
505 -> 511 ;
512 [label="MonthlyCharges <= 20.075\ngini = 0.426\nsamples = 7\nvalue = [4, 9]\nclass = h"] ;
511 -> 512 ;
513 [label="TotalCharges <= 19.175\ngini = 0.5\nsamples = 5\nvalue = [4, 4]\nclass = C"] ;
512 -> 513 ;
514 [label="gini = 0.0\nsamples = 1\nvalue = [0, 3]\nclass = h"] ;
513 -> 514 ;
515 [label="gini = 0.32\nsamples = 4\nvalue = [4, 1]\nclass = C"] ;
513 -> 515 ;
516 [label="gini = 0.0\nsamples = 2\nvalue = [0, 5]\nclass = h"] ;
512 -> 516 ;
517 [label="gini = 0.0\nsamples = 2\nvalue = [3, 0]\nclass = C"] ;
511 -> 517 ;
518 [label="Tenure <= 1.5\ngini = 0.413\nsamples = 45\nvalue = [51, 21]\nclass = C"] ;
504 -> 518 ;
519 [label="Contract_Two year <= 0.5\ngini = 0.416\nsamples = 38\nvalue = [43, 18]\nclass = C"] ;
518 -> 519 ;
520 [label="TotalCharges <= 20.45\ngini = 0.428\nsamples = 37\nvalue = [40, 18]\nclass = C"] ;
519 -> 520 ;
521 [label="Gender_Male <= 0.5\ngini = 0.375\nsamples = 31\nvalue = [36, 12]\nclass = C"] ;
520 -> 521 ;
522 [label="PaymentMethod_Mailed check <= 0.5\ngini = 0.227\nsamples = 13\nvalue = [20, 3]\nclass = C"] ;
521 -> 522 ;
523 [label="gini = 0.198\nsamples = 5\nvalue = [8, 1]\nclass = C"] ;
522 -> 523 ;
524 [label="gini = 0.245\nsamples = 8\nvalue = [12, 2]\nclass = C"] ;
522 -> 524 ;
525 [label="SeniorCitizen_Yes <= 0.5\ngini = 0.461\nsamples = 18\nvalue = [16, 9]\nclass = C"] ;
521 -> 525 ;
526 [label="gini = 0.444\nsamples = 17\nvalue = [16, 8]\nclass = C"] ;
525 -> 526 ;
527 [label="gini = 0.0\nsamples = 1\nvalue = [0, 1]\nclass = h"] ;
525 -> 527 ;
528 [label="TotalCharges <= 20.65\ngini = 0.48\nsamples = 6\nvalue = [4, 6]\nclass = h"] ;
520 -> 528 ;
529 [label="gini = 0.278\nsamples = 3\nvalue = [1, 5]\nclass = h"] ;
528 -> 529 ;
530 [label="gini = 0.375\nsamples = 3\nvalue = [3, 1]\nclass = C"] ;
528 -> 530 ;
531 [label="gini = 0.0\nsamples = 1\nvalue = [3, 0]\nclass = C"] ;
519 -> 531 ;
532 [label="Contract_One year <= 0.5\ngini = 0.397\nsamples = 7\nvalue = [8, 3]\nclass = C"] ;
518 -> 532 ;
533 [label="MonthlyCharges <= 20.3\ngini = 0.49\nsamples = 6\nvalue = [4, 3]\nclass = C"] ;
532 -> 533 ;
534 [label="gini = 0.0\nsamples = 3\nvalue = [3, 0]\nclass = C"] ;
533 -> 534 ;
535 [label="gini = 0.375\nsamples = 3\nvalue = [1, 3]\nclass = h"] ;
533 -> 535 ;
536 [label="gini = 0.0\nsamples = 1\nvalue = [4, 0]\nclass = C"] ;
532 -> 536 ;
537 [label="gini = 0.375\nsamples = 2\nvalue = [1, 3]\nclass = h"] ;
503 -> 537 ;
538 [label="Gender_Male <= 0.5\ngini = 0.119\nsamples = 347\nvalue = [518, 35]\nclass = C"] ;
502 -> 538 ;
539 [label="SeniorCitizen_No <= 0.5\ngini = 0.075\nsamples = 166\nvalue = [246, 10]\nclass = C"] ;
538 -> 539 ;
540 [label="MonthlyCharges <= 19.85\ngini = 0.18\nsamples = 8\nvalue = [9, 1]\nclass = C"] ;
539 -> 540 ;
541 [label="gini = 0.5\nsamples = 2\nvalue = [1, 1]\nclass = C"] ;
540 -> 541 ;
542 [label="gini = 0.0\nsamples = 6\nvalue = [8, 0]\nclass = C"] ;
540 -> 542 ;
543 [label="PaymentMethod_Credit card (automatic) <= 0.5\ngini = 0.07\nsamples = 158\nvalue = [237, 9]\nclass = C"] ;
539 -> 543 ;
544 [label="PaperlessBilling_No <= 0.5\ngini = 0.063\nsamples = 124\nvalue = [178, 6]\nclass = C"] ;
543 -> 544 ;
545 [label="gini = 0.0\nsamples = 33\nvalue = [47, 0]\nclass = C"] ;
544 -> 545 ;
546 [label="MonthlyCharges <= 19.775\ngini = 0.084\nsamples = 91\nvalue = [131, 6]\nclass = C"] ;
544 -> 546 ;
547 [label="MonthlyCharges <= 19.725\ngini = 0.236\nsamples = 29\nvalue = [38, 6]\nclass = C"] ;
546 -> 547 ;
548 [label="Partner_Yes <= 0.5\ngini = 0.206\nsamples = 28\nvalue = [38, 5]\nclass = C"] ;
547 -> 548 ;
549 [label="gini = 0.059\nsamples = 23\nvalue = [32, 1]\nclass = C"] ;
548 -> 549 ;
550 [label="gini = 0.48\nsamples = 5\nvalue = [6, 4]\nclass = C"] ;
548 -> 550 ;
551 [label="gini = 0.0\nsamples = 1\nvalue = [0, 1]\nclass = h"] ;
547 -> 551 ;
552 [label="gini = 0.0\nsamples = 62\nvalue = [93, 0]\nclass = C"] ;
546 -> 552 ;
553 [label="PaperlessBilling_Yes <= 0.5\ngini = 0.092\nsamples = 34\nvalue = [59, 3]\nclass = C"] ;
543 -> 553 ;
554 [label="gini = 0.0\nsamples = 20\nvalue = [38, 0]\nclass = C"] ;
553 -> 554 ;
555 [label="MultipleLines_Yes <= 0.5\ngini = 0.219\nsamples = 14\nvalue = [21, 3]\nclass = C"] ;
553 -> 555 ;
556 [label="gini = 0.0\nsamples = 5\nvalue = [8, 0]\nclass = C"] ;
555 -> 556 ;
557 [label="TotalCharges <= 793.9\ngini = 0.305\nsamples = 9\nvalue = [13, 3]\nclass = C"] ;
555 -> 557 ;
558 [label="gini = 0.5\nsamples = 2\nvalue = [3, 3]\nclass = C"] ;
557 -> 558 ;
559 [label="gini = 0.0\nsamples = 7\nvalue = [10, 0]\nclass = C"] ;
557 -> 559 ;
560 [label="Tenure <= 11.5\ngini = 0.154\nsamples = 181\nvalue = [272, 25]\nclass = C"] ;
538 -> 560 ;
561 [label="Partner_No <= 0.5\ngini = 0.275\nsamples = 47\nvalue = [66, 13]\nclass = C"] ;
560 -> 561 ;
562 [label="SeniorCitizen_Yes <= 0.5\ngini = 0.346\nsamples = 6\nvalue = [7, 2]\nclass = C"] ;
561 -> 562 ;
563 [label="gini = 0.0\nsamples = 4\nvalue = [6, 0]\nclass = C"] ;
562 -> 563 ;
564 [label="gini = 0.444\nsamples = 2\nvalue = [1, 2]\nclass = h"] ;
562 -> 564 ;
565 [label="PaymentMethod_Bank transfer (automatic) <= 0.5\ngini = 0.265\nsamples = 41\nvalue = [59, 11]\nclass = C"] ;
561 -> 565 ;
566 [label="Contract_Two year <= 0.5\ngini = 0.299\nsamples = 36\nvalue = [49, 11]\nclass = C"] ;
565 -> 566 ;
567 [label="PaymentMethod_Electronic check <= 0.5\ngini = 0.307\nsamples = 34\nvalue = [47, 11]\nclass = C"] ;
566 -> 567 ;
568 [label="PaperlessBilling_Yes <= 0.5\ngini = 0.338\nsamples = 30\nvalue = [40, 11]\nclass = C"] ;
567 -> 568 ;
569 [label="gini = 0.388\nsamples = 21\nvalue = [28, 10]\nclass = C"] ;
568 -> 569 ;
570 [label="gini = 0.142\nsamples = 9\nvalue = [12, 1]\nclass = C"] ;
568 -> 570 ;
571 [label="gini = 0.0\nsamples = 4\nvalue = [7, 0]\nclass = C"] ;
567 -> 571 ;
572 [label="gini = 0.0\nsamples = 2\nvalue = [2, 0]\nclass = C"] ;
566 -> 572 ;
573 [label="gini = 0.0\nsamples = 5\nvalue = [10, 0]\nclass = C"] ;
565 -> 573 ;
574 [label="Tenure <= 54.5\ngini = 0.104\nsamples = 134\nvalue = [206, 12]\nclass = C"] ;
560 -> 574 ;
575 [label="PaperlessBilling_Yes <= 0.5\ngini = 0.054\nsamples = 94\nvalue = [139, 4]\nclass = C"] ;
574 -> 575 ;
576 [label="MonthlyCharges <= 25.15\ngini = 0.04\nsamples = 66\nvalue = [96, 2]\nclass = C"] ;
575 -> 576 ;
577 [label="MonthlyCharges <= 20.2\ngini = 0.022\nsamples = 63\nvalue = [91, 1]\nclass = C"] ;
576 -> 577 ;
578 [label="gini = 0.0\nsamples = 44\nvalue = [68, 0]\nclass = C"] ;
577 -> 578 ;
579 [label="Tenure <= 18.5\ngini = 0.08\nsamples = 19\nvalue = [23, 1]\nclass = C"] ;
577 -> 579 ;
580 [label="gini = 0.32\nsamples = 3\nvalue = [4, 1]\nclass = C"] ;
579 -> 580 ;
581 [label="gini = 0.0\nsamples = 16\nvalue = [19, 0]\nclass = C"] ;
579 -> 581 ;
582 [label="gini = 0.278\nsamples = 3\nvalue = [5, 1]\nclass = C"] ;
576 -> 582 ;
583 [label="SeniorCitizen_Yes <= 0.5\ngini = 0.085\nsamples = 28\nvalue = [43, 2]\nclass = C"] ;
575 -> 583 ;
584 [label="Partner_Yes <= 0.5\ngini = 0.087\nsamples = 27\nvalue = [42, 2]\nclass = C"] ;
583 -> 584 ;
585 [label="Contract_Two year <= 0.5\ngini = 0.097\nsamples = 23\nvalue = [37, 2]\nclass = C"] ;
584 -> 585 ;
586 [label="gini = 0.111\nsamples = 19\nvalue = [32, 2]\nclass = C"] ;
585 -> 586 ;
587 [label="gini = 0.0\nsamples = 4\nvalue = [5, 0]\nclass = C"] ;
585 -> 587 ;
588 [label="gini = 0.0\nsamples = 4\nvalue = [5, 0]\nclass = C"] ;
584 -> 588 ;
589 [label="gini = 0.0\nsamples = 1\nvalue = [1, 0]\nclass = C"] ;
583 -> 589 ;
590 [label="Contract_Two year <= 0.5\ngini = 0.191\nsamples = 40\nvalue = [67, 8]\nclass = C"] ;
574 -> 590 ;
591 [label="PaymentMethod_Electronic check <= 0.5\ngini = 0.346\nsamples = 5\nvalue = [7, 2]\nclass = C"] ;
590 -> 591 ;
592 [label="gini = 0.0\nsamples = 3\nvalue = [6, 0]\nclass = C"] ;
591 -> 592 ;
593 [label="gini = 0.444\nsamples = 2\nvalue = [1, 2]\nclass = h"] ;
591 -> 593 ;
594 [label="Partner_Yes <= 0.5\ngini = 0.165\nsamples = 35\nvalue = [60, 6]\nclass = C"] ;
590 -> 594 ;
595 [label="PaymentMethod_Mailed check <= 0.5\ngini = 0.165\nsamples = 17\nvalue = [30, 3]\nclass = C"] ;
594 -> 595 ;
596 [label="gini = 0.0\nsamples = 9\nvalue = [15, 0]\nclass = C"] ;
595 -> 596 ;
597 [label="MultipleLines_No <= 0.5\ngini = 0.278\nsamples = 8\nvalue = [15, 3]\nclass = C"] ;
595 -> 597 ;
598 [label="gini = 0.0\nsamples = 4\nvalue = [6, 0]\nclass = C"] ;
597 -> 598 ;
599 [label="gini = 0.375\nsamples = 4\nvalue = [9, 3]\nclass = C"] ;
597 -> 599 ;
600 [label="PaymentMethod_Credit card (automatic) <= 0.5\ngini = 0.165\nsamples = 18\nvalue = [30, 3]\nclass = C"] ;
594 -> 600 ;
601 [label="gini = 0.0\nsamples = 10\nvalue = [18, 0]\nclass = C"] ;
600 -> 601 ;
602 [label="MonthlyCharges <= 25.0\ngini = 0.32\nsamples = 8\nvalue = [12, 3]\nclass = C"] ;
600 -> 602 ;
603 [label="gini = 0.0\nsamples = 4\nvalue = [9, 0]\nclass = C"] ;
602 -> 603 ;
604 [label="gini = 0.5\nsamples = 4\nvalue = [3, 3]\nclass = C"] ;
602 -> 604 ;
}